## Autogenerated by Scribe. DO NOT MODIFY.

name: Endpoints
description: ''
endpoints:
  -
    httpMethods:
      - POST
    uri: api/register
    metadata:
      groupName: Endpoints
      groupDescription: ''
      subgroup: ''
      subgroupDescription: ''
      title: 'Registration Req'
      description: ''
      authenticated: false
      custom: []
    headers:
      Content-Type: application/json
      Accept: application/json
    urlParameters: []
    cleanUrlParameters: []
    queryParameters: []
    cleanQueryParameters: []
    bodyParameters:
      name:
        name: name
        description: 'Must be at least 4 characters.'
        required: true
        example: nwsrlntlowjfxuibzpuppczgrxare
        type: string
        custom: []
      email:
        name: email
        description: 'Must be a valid email address.'
        required: true
        example: isaiah.kunze@example.net
        type: string
        custom: []
      password:
        name: password
        description: 'Must be at least 8 characters.'
        required: true
        example: 'm2s-]4}}JuOU7~,'
        type: string
        custom: []
    cleanBodyParameters:
      name: nwsrlntlowjfxuibzpuppczgrxare
      email: isaiah.kunze@example.net
      password: 'm2s-]4}}JuOU7~,'
    fileParameters: []
    responses: []
    responseFields: []
    auth: []
    controller: null
    method: null
    route: null
    custom: []
  -
    httpMethods:
      - POST
    uri: api/login
    metadata:
      groupName: Endpoints
      groupDescription: ''
      subgroup: ''
      subgroupDescription: ''
      title: 'Login Req'
      description: ''
      authenticated: false
      custom: []
    headers:
      Content-Type: application/json
      Accept: application/json
    urlParameters: []
    cleanUrlParameters: []
    queryParameters: []
    cleanQueryParameters: []
    bodyParameters: []
    cleanBodyParameters: []
    fileParameters: []
    responses: []
    responseFields: []
    auth: []
    controller: null
    method: null
    route: null
    custom: []
  -
    httpMethods:
      - POST
    uri: api/logout
    metadata:
      groupName: Endpoints
      groupDescription: ''
      subgroup: ''
      subgroupDescription: ''
      title: ''
      description: ''
      authenticated: false
      custom: []
    headers:
      Content-Type: application/json
      Accept: application/json
    urlParameters: []
    cleanUrlParameters: []
    queryParameters: []
    cleanQueryParameters: []
    bodyParameters: []
    cleanBodyParameters: []
    fileParameters: []
    responses: []
    responseFields: []
    auth: []
    controller: null
    method: null
    route: null
    custom: []
  -
    httpMethods:
      - GET
    uri: api/get-user
    metadata:
      groupName: Endpoints
      groupDescription: ''
      subgroup: ''
      subgroupDescription: ''
      title: ''
      description: ''
      authenticated: false
      custom: []
    headers:
      Content-Type: application/json
      Accept: application/json
    urlParameters: []
    cleanUrlParameters: []
    queryParameters: []
    cleanQueryParameters: []
    bodyParameters: []
    cleanBodyParameters: []
    fileParameters: []
    responses:
      -
        status: 401
        content: '{"message":"Unauthenticated."}'
        headers:
          cache-control: 'no-cache, private'
          content-type: application/json
          access-control-allow-origin: '*'
        description: null
        custom: []
    responseFields: []
    auth: []
    controller: null
    method: null
    route: null
    custom: []
  -
    httpMethods:
      - POST
    uri: api/movies
    metadata:
      groupName: Endpoints
      groupDescription: ''
      subgroup: ''
      subgroupDescription: ''
      title: 'Store a newly created resource in storage.'
      description: ''
      authenticated: false
      custom: []
    headers:
      Content-Type: multipart/form-data
      Accept: application/json
    urlParameters: []
    cleanUrlParameters: []
    queryParameters: []
    cleanQueryParameters: []
    bodyParameters:
      title:
        name: title
        description: 'Must not be greater than 20 characters.'
        required: true
        example: ijmvhz
        type: string
        custom: []
      summary:
        name: summary
        description: 'Must not be greater than 200 characters.'
        required: true
        example: x
        type: string
        custom: []
      image:
        name: image
        description: 'Must be an image. Must not be greater than 2048 kilobytes.'
        required: true
        example: null
        type: file
        custom: []
      rating:
        name: rating
        description: 'Must be at least 3. Must not be greater than 8.'
        required: false
        example: 3
        type: number
        custom: []
      link:
        name: link
        description: 'Must not be greater than 100 characters.'
        required: true
        example: fy
        type: string
        custom: []
      genres:
        name: genres
        description: ''
        required: false
        example: null
        type: 'string[]'
        custom: []
      authors:
        name: authors
        description: ''
        required: false
        example: null
        type: 'string[]'
        custom: []
      tags:
        name: tags
        description: ''
        required: false
        example: null
        type: 'string[]'
        custom: []
    cleanBodyParameters:
      title: ijmvhz
      summary: x
      rating: 3
      link: fy
    fileParameters:
      image: null
    responses: []
    responseFields: []
    auth: []
    controller: null
    method: null
    route: null
    custom: []
  -
    httpMethods:
      - POST
    uri: 'api/movies/{id}'
    metadata:
      groupName: Endpoints
      groupDescription: ''
      subgroup: ''
      subgroupDescription: ''
      title: 'Update the specified resource in storage.'
      description: ''
      authenticated: false
      custom: []
    headers:
      Content-Type: multipart/form-data
      Accept: application/json
    urlParameters:
      id:
        name: id
        description: 'The ID of the movie.'
        required: true
        example: similique
        type: string
        custom: []
    cleanUrlParameters:
      id: similique
    queryParameters: []
    cleanQueryParameters: []
    bodyParameters:
      title:
        name: title
        description: 'Must not be greater than 20 characters.'
        required: false
        example: gugrjsleknbb
        type: string
        custom: []
      summary:
        name: summary
        description: 'Must not be greater than 200 characters.'
        required: true
        example: skaqphrtoyoat
        type: string
        custom: []
      image:
        name: image
        description: 'Must be an image. Must not be greater than 2048 kilobytes.'
        required: false
        example: null
        type: file
        custom: []
      rating:
        name: rating
        description: 'Must be at least 3. Must not be greater than 8.'
        required: false
        example: 7
        type: number
        custom: []
      link:
        name: link
        description: 'Must not be greater than 100 characters.'
        required: false
        example: ylyclvqcdqwvypdecg
        type: string
        custom: []
      genres:
        name: genres
        description: ''
        required: false
        example: null
        type: 'string[]'
        custom: []
      authors:
        name: authors
        description: ''
        required: false
        example: null
        type: 'string[]'
        custom: []
      tags:
        name: tags
        description: ''
        required: false
        example: null
        type: 'string[]'
        custom: []
    cleanBodyParameters:
      title: gugrjsleknbb
      summary: skaqphrtoyoat
      rating: 7
      link: ylyclvqcdqwvypdecg
    fileParameters:
      image: null
    responses: []
    responseFields: []
    auth: []
    controller: null
    method: null
    route: null
    custom: []
  -
    httpMethods:
      - DELETE
    uri: 'api/movies/{id}'
    metadata:
      groupName: Endpoints
      groupDescription: ''
      subgroup: ''
      subgroupDescription: ''
      title: 'Remove the specified resource from storage.'
      description: ''
      authenticated: false
      custom: []
    headers:
      Content-Type: application/json
      Accept: application/json
    urlParameters:
      id:
        name: id
        description: 'The ID of the movie.'
        required: true
        example: quia
        type: string
        custom: []
    cleanUrlParameters:
      id: quia
    queryParameters: []
    cleanQueryParameters: []
    bodyParameters: []
    cleanBodyParameters: []
    fileParameters: []
    responses: []
    responseFields: []
    auth: []
    controller: null
    method: null
    route: null
    custom: []
  -
    httpMethods:
      - GET
    uri: api/movies
    metadata:
      groupName: Endpoints
      groupDescription: ''
      subgroup: ''
      subgroupDescription: ''
      title: 'Display a listing of the resource.'
      description: ''
      authenticated: false
      custom: []
    headers:
      Content-Type: application/json
      Accept: application/json
    urlParameters: []
    cleanUrlParameters: []
    queryParameters: []
    cleanQueryParameters: []
    bodyParameters: []
    cleanBodyParameters: []
    fileParameters: []
    responses:
      -
        status: 200
        content: '{"movies":{"current_page":1,"data":[{"id":29,"title":"If I stay","summary":"movie summary","image":"1674386067.jpg","rating":"4","link":"www.youtube.com","created_at":"2023-01-22T12:41:12.000000Z","updated_at":"2023-01-22T12:41:12.000000Z","genres":[],"authors":[],"tags":[]}],"first_page_url":"http:\/\/localhost\/api\/movies?page=1","from":1,"last_page":5,"last_page_url":"http:\/\/localhost\/api\/movies?page=5","links":[{"url":null,"label":"&laquo; Previous","active":false},{"url":"http:\/\/localhost\/api\/movies?page=1","label":"1","active":true},{"url":"http:\/\/localhost\/api\/movies?page=2","label":"2","active":false},{"url":"http:\/\/localhost\/api\/movies?page=3","label":"3","active":false},{"url":"http:\/\/localhost\/api\/movies?page=4","label":"4","active":false},{"url":"http:\/\/localhost\/api\/movies?page=5","label":"5","active":false},{"url":"http:\/\/localhost\/api\/movies?page=2","label":"Next &raquo;","active":false}],"next_page_url":"http:\/\/localhost\/api\/movies?page=2","path":"http:\/\/localhost\/api\/movies","per_page":1,"prev_page_url":null,"to":1,"total":5}}'
        headers:
          cache-control: 'no-cache, private'
          content-type: application/json
          x-ratelimit-limit: '60'
          x-ratelimit-remaining: '59'
          access-control-allow-origin: '*'
        description: null
        custom: []
    responseFields: []
    auth: []
    controller: null
    method: null
    route: null
    custom: []
  -
    httpMethods:
      - GET
    uri: 'api/movies/{id}'
    metadata:
      groupName: Endpoints
      groupDescription: ''
      subgroup: ''
      subgroupDescription: ''
      title: 'Get movie by ID'
      description: ''
      authenticated: false
      custom: []
    headers:
      Content-Type: application/json
      Accept: application/json
    urlParameters:
      id:
        name: id
        description: 'The ID of the movie.'
        required: true
        example: facere
        type: string
        custom: []
    cleanUrlParameters:
      id: facere
    queryParameters: []
    cleanQueryParameters: []
    bodyParameters: []
    cleanBodyParameters: []
    fileParameters: []
    responses:
      -
        status: 200
        content: '{"status":200,"data":null,"comments":[]}'
        headers:
          cache-control: 'no-cache, private'
          content-type: application/json
          x-ratelimit-limit: '60'
          x-ratelimit-remaining: '58'
          access-control-allow-origin: '*'
        description: null
        custom: []
    responseFields: []
    auth: []
    controller: null
    method: null
    route: null
    custom: []
  -
    httpMethods:
      - GET
    uri: api/comments
    metadata:
      groupName: Endpoints
      groupDescription: ''
      subgroup: ''
      subgroupDescription: ''
      title: 'Display a listing of the resource.'
      description: ''
      authenticated: false
      custom: []
    headers:
      Content-Type: application/json
      Accept: application/json
    urlParameters: []
    cleanUrlParameters: []
    queryParameters: []
    cleanQueryParameters: []
    bodyParameters: []
    cleanBodyParameters: []
    fileParameters: []
    responses:
      -
        status: 200
        content: ''
        headers:
          content-type: 'text/html; charset=UTF-8'
          cache-control: 'no-cache, private'
          x-ratelimit-limit: '60'
          x-ratelimit-remaining: '57'
          access-control-allow-origin: '*'
        description: null
        custom: []
    responseFields: []
    auth: []
    controller: null
    method: null
    route: null
    custom: []
  -
    httpMethods:
      - POST
    uri: api/comments
    metadata:
      groupName: Endpoints
      groupDescription: ''
      subgroup: ''
      subgroupDescription: ''
      title: 'Store a newly created resource in storage.'
      description: ''
      authenticated: false
      custom: []
    headers:
      Content-Type: application/json
      Accept: application/json
    urlParameters: []
    cleanUrlParameters: []
    queryParameters: []
    cleanQueryParameters: []
    bodyParameters:
      email:
        name: email
        description: 'Must be a valid email address.'
        required: true
        example: hermiston.alvis@example.net
        type: string
        custom: []
      comment:
        name: comment
        description: 'Must be at least 8 characters. Must not be greater than  100 characters.'
        required: true
        example: michfetsxxcdrwe
        type: string
        custom: []
      movie_id:
        name: movie_id
        description: ''
        required: true
        example: 9074.9733334
        type: number
        custom: []
    cleanBodyParameters:
      email: hermiston.alvis@example.net
      comment: michfetsxxcdrwe
      movie_id: 9074.9733334
    fileParameters: []
    responses: []
    responseFields: []
    auth: []
    controller: null
    method: null
    route: null
    custom: []
  -
    httpMethods:
      - GET
    uri: 'api/comments/{id}'
    metadata:
      groupName: Endpoints
      groupDescription: ''
      subgroup: ''
      subgroupDescription: ''
      title: 'Display the specified resource.'
      description: ''
      authenticated: false
      custom: []
    headers:
      Content-Type: application/json
      Accept: application/json
    urlParameters:
      id:
        name: id
        description: 'The ID of the comment.'
        required: true
        example: 17
        type: integer
        custom: []
    cleanUrlParameters:
      id: 17
    queryParameters: []
    cleanQueryParameters: []
    bodyParameters: []
    cleanBodyParameters: []
    fileParameters: []
    responses:
      -
        status: 200
        content: ''
        headers:
          content-type: 'text/html; charset=UTF-8'
          cache-control: 'no-cache, private'
          x-ratelimit-limit: '60'
          x-ratelimit-remaining: '56'
          access-control-allow-origin: '*'
        description: null
        custom: []
    responseFields: []
    auth: []
    controller: null
    method: null
    route: null
    custom: []
  -
    httpMethods:
      - PUT
      - PATCH
    uri: 'api/comments/{id}'
    metadata:
      groupName: Endpoints
      groupDescription: ''
      subgroup: ''
      subgroupDescription: ''
      title: 'Update the specified resource in storage.'
      description: ''
      authenticated: false
      custom: []
    headers:
      Content-Type: application/json
      Accept: application/json
    urlParameters:
      id:
        name: id
        description: 'The ID of the comment.'
        required: true
        example: 3
        type: integer
        custom: []
    cleanUrlParameters:
      id: 3
    queryParameters: []
    cleanQueryParameters: []
    bodyParameters: []
    cleanBodyParameters: []
    fileParameters: []
    responses: []
    responseFields: []
    auth: []
    controller: null
    method: null
    route: null
    custom: []
  -
    httpMethods:
      - DELETE
    uri: 'api/comments/{id}'
    metadata:
      groupName: Endpoints
      groupDescription: ''
      subgroup: ''
      subgroupDescription: ''
      title: 'Remove the specified resource from storage.'
      description: ''
      authenticated: false
      custom: []
    headers:
      Content-Type: application/json
      Accept: application/json
    urlParameters:
      id:
        name: id
        description: 'The ID of the comment.'
        required: true
        example: 5
        type: integer
        custom: []
    cleanUrlParameters:
      id: 5
    queryParameters: []
    cleanQueryParameters: []
    bodyParameters: []
    cleanBodyParameters: []
    fileParameters: []
    responses: []
    responseFields: []
    auth: []
    controller: null
    method: null
    route: null
    custom: []
